>>> Chat History with aterose10::

2021-11-01 05:17:30 ruffamaesandino: https://www.tiktokv.com/share/video/7020236121774837018/

>>> Chat History with geromegaviola::

2021-01-21 14:28:30 geromegaviola: hi lods pa heart ng videos ko heart din kita after GAME
2021-11-01 05:17:29 ruffamaesandino: https://www.tiktokv.com/share/video/7020236121774837018/

>>> Chat History with itsme.mingay::

2020-10-04 14:47:58 ruffamaesandino: https://activity.tiktok.com/magic/page/ejs/5f6970b4bd870c02ce458497?appType=aweme
2020-10-05 02:41:25 itsme.mingay: https://api.tiktokv.com/coupon/index.html?hide_nav_bar=1&should_full_screen=1&hide_status_bar=1&enter_from=metab#/home/earn
2020-10-05 02:41:37 itsme.mingay: https://api.tiktokv.com/coupon/index.html?hide_nav_bar=1&should_full_screen=1&hide_status_bar=1&enter_from=metab#/home/earn
2020-10-05 02:41:54 ruffamaesandino: [https://p16-tiktokcdn-com.akamaized.net/obj/tiktok-obj/1632875024273410]
2020-10-05 02:44:16 itsme.mingay: hello

>>> Chat History with janessacuizoncard::

2020-06-28 07:34:08 janessacuizoncard: 50 hearts ? game ! tell me if ur done then i'll do the same. 
2020-06-28 12:48:13 ruffamaesandino: okay 
2020-10-04 14:47:55 ruffamaesandino: https://activity.tiktok.com/magic/page/ejs/5f6970b4bd870c02ce458497?appType=aweme

>>> Chat History with nhemieparole::

2020-10-04 14:47:49 ruffamaesandino: https://activity.tiktok.com/magic/page/ejs/5f6970b4bd870c02ce458497?appType=aweme
2020-10-12 11:25:47 nhemieparole: https://www.tiktokv.com/share/video/6878256668430454018/
2020-10-19 12:47:46 nhemieparole: https://www.tiktokv.com/share/video/6885259276500225282/

>>> Chat History with queenluvs14::

2020-10-05 02:42:13 ruffamaesandino: https://activity.tiktok.com/magic/page/ejs/5f6970b4bd870c02ce458497?appType=aweme

>>> Chat History with scobiedo.doo::

2020-10-04 14:48:00 ruffamaesandino: https://activity.tiktok.com/magic/page/ejs/5f6970b4bd870c02ce458497?appType=aweme

>>> Chat History with starkpaculanan::

2020-07-28 09:34:45 starkpaculanan: 80 hearts po tayo🙂
2020-10-04 14:47:46 ruffamaesandino: https://activity.tiktok.com/magic/page/ejs/5f6970b4bd870c02ce458497?appType=aweme


