Date: 2021-10-28 02:53:49
Video Link: https://video-va.tiktokv.com/storage/v1/tos-useast2a-pv-0037-aiso/e2b51114d7f6404a88c169fc47f6fd49?a=1233&br=4602&bt=2301&cd=0%7C0%7C0%7C0&ch=0&cr=0&cs=0&dr=0&ds=6&er=&ft=uYoccg3-Inzp-J_oABM&l=02164972841785900000000000000000000ffff0abc1192478287&lr=&mime_type=video_mp4&net=0&pl=0&qs=13&rc=anA7djs6ZnUzODMzZjgzM0ApZ2xodHg6ZXl3ZjMzajVpeWdhZmJucjRfc3FgLS1kL2Nzc2RqNXA1NGBvLTItLWAyLS06Yw%3D%3D&vl=&vr=&x-tos-algorithm=v2&x-tos-authkey=5bf25627da095a5cba28ace592de46cc&x-tos-expires=1650592433&x-tos-signature=HU8WSsY3yQxuM7osTnyW4aJxuqo
Like(s): 0

Date: 2021-10-28 02:49:33
Video Link: https://video-va.tiktokv.com/storage/v1/tos-useast2a-pv-0037-aiso/6d891a18bd8b4864914df84d7f8bddfb?a=1233&br=3514&bt=1757&cd=0%7C0%7C0%7C0&ch=0&cr=0&cs=0&dr=0&ds=6&er=&ft=uYoccg3-Inzp-J_oABM&l=02164972841785900000000000000000000ffff0abc1192478287&lr=&mime_type=video_mp4&net=0&pl=0&qs=13&rc=ampza2k6ZnMzODMzZjgzM0ApdTw4M3g6bXd3ZjMzajVpeWdvNjItcjRncXFgLS1kL2Nzc2RkbWVjNGBtLTItLWAyLS06Yw%3D%3D&vl=&vr=&x-tos-algorithm=v2&x-tos-authkey=5bf25627da095a5cba28ace592de46cc&x-tos-expires=1650592439&x-tos-signature=RSGus5EemjpTS0ZCyWikQaS70jQ
Like(s): 1

Date: 2021-04-11 14:15:02
Video Link: https://video-sg.tiktokv.com/storage/v1/tos-alisg-pv-0037/0cdc06d024ee442196fc84d709f71d0e?a=1233&br=4910&bt=2455&cd=0%7C0%7C0%7C0&ch=0&cr=0&cs=0&dr=0&ds=6&er=&ft=uYdcfg3-Inzp-J_oABM&l=02164972841785900000000000000000000ffff0abc1192478287&lr=&mime_type=video_mp4&net=0&pl=0&qs=13&rc=anZobzk2bGlqNDMzODgzM0ApNGR0N2dvcztzZjMzajU6eWcuXm4xYWltNW1gLS1kLzRzc2RwYmkzMGZjZC4tLTIyLS06Yw%3D%3D&vl=&vr=&x-tos-algorithm=v2&x-tos-authkey=5bf25627da095a5cba28ace592de46cc&x-tos-expires=1650592474&x-tos-signature=r7V0MIpyfUfu9qY84XJkcqy0hw0
Like(s): 4

Date: 2021-01-29 02:03:18
Video Link: https://video-sg.tiktokv.com/storage/v1/tos-alisg-pv-0037/16f0a0e6e00745ad955a1c0f5187c18a?a=1233&br=7846&bt=3923&cd=0%7C0%7C0%7C0&ch=0&cr=0&cs=0&cv=1&dr=0&ds=6&er=&ft=uYdcfg3-Inzp-J_oABM&l=02164972841785900000000000000000000ffff0abc1192478287&lr=&mime_type=video_mp4&net=0&pl=0&qs=13&rc=MztvdjZsZTdwMzMzaDgzM0ApNW9lZTplOXE8ZjMzODU6eWcvaV9fNF8zazZgLS0yLzRzcy01aXAwZl8xai0tLWIyLS06Yw%3D%3D&vl=&vr=&x-tos-algorithm=v2&x-tos-authkey=5bf25627da095a5cba28ace592de46cc&x-tos-expires=1650592430&x-tos-signature=lLCZbaiqTUPfC8n5jMQcfFpe6dU
Like(s): 13

Date: 2020-07-09 12:42:22
Video Link: https://video-sg.tiktokv.com/storage/v1/tos-alisg-pv-0037/189a3ea91e0f4276b8dceaa42448357a?a=1233&br=7658&bt=3829&cd=0%7C0%7C0%7C0&ch=0&cr=0&cs=0&dr=0&ds=6&er=&ft=uYdcfg3-Inzp-J_oABM&l=02164972841785900000000000000000000ffff0abc1192478287&lr=&mime_type=video_mp4&net=0&pl=0&qs=13&rc=amt5ZHY5ajVrdjMzaDgzM0ApcG01PHQ5bzQ2ZTMzPDU6eWdqZy82bjNpLjBfLS02LzRzc2Rlc15wM2QvZXAtLWIyLS06Yw%3D%3D&vl=&vr=&x-tos-algorithm=v2&x-tos-authkey=5bf25627da095a5cba28ace592de46cc&x-tos-expires=1650592436&x-tos-signature=5_4zjfWpUmhqGyJROTcKIgAJ_ZM
Like(s): 6

Date: 2020-07-09 03:02:51
Video Link: https://video-sg.tiktokv.com/storage/v1/tos-alisg-pv-0037/274b96e87fde46c69cf4e7bc643557a7?a=1233&br=7776&bt=3888&cd=0%7C0%7C0%7C0&ch=0&cr=0&cs=0&dr=0&ds=6&er=&ft=uYdcfg3-Inzp-J_oABM&l=02164972841785900000000000000000000ffff0abc1192478287&lr=&mime_type=video_mp4&net=0&pl=0&qs=13&rc=amt4Z3JpbWo7djMzOjgzM0ApOHdueHNsO2s2ZTMzZDU6eWcycWhybWY1ZTBfLS1eLzRzc2RlcmFsY2dkNXAtLTQyLS06Yw%3D%3D&vl=&vr=&x-tos-algorithm=v2&x-tos-authkey=5bf25627da095a5cba28ace592de46cc&x-tos-expires=1650592433&x-tos-signature=U9pPZUxGqlFvJihF0ocniEkt-JI
Like(s): 6

Date: 2020-07-08 10:09:38
Video Link: https://video-sg.tiktokv.com/storage/v1/tos-alisg-pv-0037/0063b71868c94999b681ebf6ce529e1f?a=1233&br=7658&bt=3829&cd=0%7C0%7C0%7C0&ch=0&cr=0&cs=0&dr=0&ds=6&er=&ft=uYdcfg3-Inzp-J_oABM&l=02164972841785900000000000000000000ffff0abc1192478287&lr=&mime_type=video_mp4&net=0&pl=0&qs=13&rc=amw8NmZlb2lzdjMzNzgzM0ApZ3ZvNWQ6cXA1ZTMzOTU6eWdhcGkvXjRrai9fLS0zLzRzc2RmNjBgX2ljbXAtLTEyLS06Yw%3D%3D&vl=&vr=&x-tos-algorithm=v2&x-tos-authkey=5bf25627da095a5cba28ace592de46cc&x-tos-expires=1650592436&x-tos-signature=Zh6tEoxRxUzLdsozwUtm9PlcH7E
Like(s): 6

Date: 2020-07-07 03:02:36
Video Link: https://video-sg.tiktokv.com/storage/v1/tos-alisg-pv-0037/0861bdb55e924ed59f193d21fadbda8e?a=1233&br=7644&bt=3822&cd=0%7C0%7C0%7C0&ch=0&cr=0&cs=0&dr=0&ds=6&er=&ft=uYdcfg3-Inzp-J_oABM&l=02164972841785900000000000000000000ffff0abc1192478287&lr=&mime_type=video_mp4&net=0&pl=0&qs=13&rc=M3MzeXJ1bGh4djMzZTgzM0ApO248cXBodGU0ZTMzMzU6eWc1aDZramJuXy5fLS0tLzRzcy1tLXNsb2ZicnAtLV8yLS06Yw%3D%3D&vl=&vr=&x-tos-algorithm=v2&x-tos-authkey=5bf25627da095a5cba28ace592de46cc&x-tos-expires=1650592437&x-tos-signature=ce0Sst1UDE7d1V4mOjbtGxxiIt4
Like(s): 3

Date: 2020-06-28 07:19:26
Video Link: https://video-sg.tiktokv.com/storage/v1/tos-alisg-pv-0037/060371c8cf1d407b88164f12ac18a91b?a=1233&br=7654&bt=3827&cd=0%7C0%7C0%7C0&ch=0&cr=0&cs=0&dr=0&ds=6&er=&ft=uYdcfg3-Inzp-J_oABM&l=02164972841785900000000000000000000ffff0abc1192478287&lr=&mime_type=video_mp4&net=0&pl=0&qs=13&rc=ajg5ZXBvM3I3dTMzZjgzM0Apb2ZnczY5eTt2ZTMzODU6eWdpYGFtMDNzNXBfLS0yLzRzc2QyM19qaS1sMW8tLWAyLS06Yw%3D%3D&vl=&vr=&x-tos-algorithm=v2&x-tos-authkey=5bf25627da095a5cba28ace592de46cc&x-tos-expires=1650592436&x-tos-signature=Aj2HsU4LzCqYb-F0DLBraQXhsGc
Like(s): 6

Date: 2020-05-30 07:40:30
Video Link: https://video-sg.tiktokv.com/storage/v1/tos-alisg-pv-0037/66df5f1036b742c88977b72fcf6b35ef?a=1233&br=7700&bt=3850&cd=0%7C0%7C0%7C0&ch=0&cr=0&cs=0&dr=0&ds=6&er=&ft=uYdcfg3-Inzp-J_oABM&l=02164972841785900000000000000000000ffff0abc1192478287&lr=&mime_type=video_mp4&net=0&pl=0&qs=13&rc=M2szZHd2M2UzdTMzNDgzM0ApaDRmPDZsbXU8ZTMzMzU6eWdiLmA2MGZnbzZfLS0tLzRzcy1lLV5xcC1fLW8tLS4yLS06Yw%3D%3D&vl=&vr=&x-tos-algorithm=v2&x-tos-authkey=5bf25627da095a5cba28ace592de46cc&x-tos-expires=1650592435&x-tos-signature=z73OpALiwOR3pj3NO4Fp-keE7Lc
Like(s): 2

Date: 2020-05-29 01:20:11
Video Link: https://video-sg.tiktokv.com/storage/v1/tos-alisg-pv-0037/eaa8e8373738429ca7625beba900e46a?a=1233&br=7674&bt=3837&cd=0%7C0%7C0%7C0&ch=0&cr=0&cs=0&dr=0&ds=6&er=&ft=uYdcfg3-Inzp-J_oABM&l=02164972841785900000000000000000000ffff0abc1192478287&lr=&mime_type=video_mp4&net=0&pl=0&qs=13&rc=M2h2eXAzZXU5dTMzNDgzM0ApNmg2d2Zuajg7ZTMzMzU6eWcwYjBxYGhkMjVfLS0tLzRzcy1icHNqLV9vM28tLS4yLS06Yw%3D%3D&vl=&vr=&x-tos-algorithm=v2&x-tos-authkey=5bf25627da095a5cba28ace592de46cc&x-tos-expires=1650592436&x-tos-signature=IzpU_GNjOvsipFTZUuTQNKVcsIU
Like(s): 2

Date: 2020-05-28 08:02:12
Video Link: https://video-sg.tiktokv.com/storage/v1/tos-alisg-pv-0037/8df351f7efa64b8b8611e8c7c8c05981?a=1233&br=7654&bt=3827&cd=0%7C0%7C0%7C0&ch=0&cr=0&cs=0&dr=0&ds=6&er=&ft=uYdcfg3-Inzp-J_oABM&l=02164972841785900000000000000000000ffff0abc1192478287&lr=&mime_type=video_mp4&net=0&pl=0&qs=13&rc=Mzk1czZnN2RwdTMzNDgzM0Apd2V3a3Z3ZXk6ZTMzMzU6eWdxX3FlcHFfczRfLS0tLzRzcy0zL20wYTFeam8tLS4yLS06Yw%3D%3D&vl=&vr=&x-tos-algorithm=v2&x-tos-authkey=5bf25627da095a5cba28ace592de46cc&x-tos-expires=1650592434&x-tos-signature=BNC8RpKDPqFAHvwX4tbrDzWtW14
Like(s): 2

Date: 2020-05-28 07:57:32
Video Link: https://video-sg.tiktokv.com/storage/v1/tos-alisg-pve-0037/109e7df3c9a04abfacff7d58d10be295?a=1233&br=2048&bt=1024&cd=0%7C0%7C0%7C0&ch=0&cr=0&cs=0&dr=0&ds=6&er=&ft=uYdcfg3-Inzp-J_oABM&l=02164972841785900000000000000000000ffff0abc1192478287&lr=&mime_type=video_mp4&net=0&pl=0&qs=13&rc=M3U5cXg1dmdwdTMzNDgzM0Apb280OjM7aXc6ZTMzZzU6eWdpaS40LTVjcTRfLS1hLzRzcy1vM2tyL3Bham8tLS4yLS06Yw%3D%3D&vl=&vr=&x-tos-algorithm=v2&x-tos-authkey=5bf25627da095a5cba28ace592de46cc&x-tos-expires=1650592435&x-tos-signature=tGQcfMZHKY6_4j9bmDCWr69tNWY
Like(s): 2

Date: 2020-05-28 07:51:06
Video Link: https://video-sg.tiktokv.com/storage/v1/tos-alisg-pv-0037/b0d3d58800f34f5db55a719afdf76b0f?a=1233&br=7730&bt=3865&cd=0%7C0%7C0%7C0&ch=0&cr=0&cs=0&dr=0&ds=6&er=&ft=uYdcfg3-Inzp-J_oABM&l=02164972841785900000000000000000000ffff0abc1192478287&lr=&mime_type=video_mp4&net=0&pl=0&qs=13&rc=M290dHEzbXJwdTMzNDgzM0ApeWlsOWY0anM6ZTMzZzU6eWdzY2YzYC5kbTRfLS1hLzRzcy1pbm5rLWdsam8tLS4yLS06Yw%3D%3D&vl=&vr=&x-tos-algorithm=v2&x-tos-authkey=5bf25627da095a5cba28ace592de46cc&x-tos-expires=1650592431&x-tos-signature=LsbuaiF-6SHy2fXkN-0xwprp8Gs
Like(s): 3


